-- Merging decision tree log ---
manifest
ADDED from C:\Users\murka\AndroidStudioProjects\virtual_signature_flutter\android\app\src\main\AndroidManifest.xml:1:1-48:12
INJECTED from C:\Users\murka\AndroidStudioProjects\virtual_signature_flutter\android\app\src\main\AndroidManifest.xml:1:1-48:12
INJECTED from C:\Users\murka\AndroidStudioProjects\virtual_signature_flutter\android\app\src\main\AndroidManifest.xml:1:1-48:12
INJECTED from C:\Users\murka\AndroidStudioProjects\virtual_signature_flutter\android\app\src\main\AndroidManifest.xml:1:1-48:12
MERGED from C:\Users\murka\AndroidStudioProjects\virtual_signature_flutter\android\app\src\main\AndroidManifest.xml:1:1-48:12
MERGED from [:file_picker] C:\Users\murka\AndroidStudioProjects\virtual_signature_flutter\build\file_picker\intermediates\library_manifest\debug\AndroidManifest.xml:2:1-17:12
MERGED from [:advance_pdf_viewer] C:\Users\murka\AndroidStudioProjects\virtual_signature_flutter\build\advance_pdf_viewer\intermediates\library_manifest\debug\AndroidManifest.xml:2:1-7:12
MERGED from [:syncfusion_flutter_pdfviewer] C:\Users\murka\AndroidStudioProjects\virtual_signature_flutter\build\syncfusion_flutter_pdfviewer\intermediates\library_manifest\debug\AndroidManifest.xml:2:1-7:12
MERGED from [:sqflite] C:\Users\murka\AndroidStudioProjects\virtual_signature_flutter\build\sqflite\intermediates\library_manifest\debug\AndroidManifest.xml:2:1-7:12
MERGED from [:flutter_plugin_android_lifecycle] C:\Users\murka\AndroidStudioProjects\virtual_signature_flutter\build\flutter_plugin_android_lifecycle\intermediates\library_manifest\debug\AndroidManifest.xml:2:1-7:12
MERGED from [:flutter_full_pdf_viewer] C:\Users\murka\AndroidStudioProjects\virtual_signature_flutter\build\flutter_full_pdf_viewer\intermediates\library_manifest\debug\AndroidManifest.xml:2:1-7:12
MERGED from [:flutter_pdfview] C:\Users\murka\AndroidStudioProjects\virtual_signature_flutter\build\flutter_pdfview\intermediates\library_manifest\debug\AndroidManifest.xml:2:1-7:12
MERGED from [:path_provider] C:\Users\murka\AndroidStudioProjects\virtual_signature_flutter\build\path_provider\intermediates\library_manifest\debug\AndroidManifest.xml:2:1-7:12
MERGED from [:permission_handler] C:\Users\murka\AndroidStudioProjects\virtual_signature_flutter\build\permission_handler\intermediates\library_manifest\debug\AndroidManifest.xml:2:1-7:12
MERGED from [:path_provider_ex] C:\Users\murka\AndroidStudioProjects\virtual_signature_flutter\build\path_provider_ex\intermediates\library_manifest\debug\AndroidManifest.xml:2:1-7:12
MERGED from [:share] C:\Users\murka\AndroidStudioProjects\virtual_signature_flutter\build\share\intermediates\library_manifest\debug\AndroidManifest.xml:2:1-19:12
MERGED from [com.github.barteksc:android-pdf-viewer:3.1.0-beta.1] C:\Users\murka\.gradle\caches\transforms-2\files-2.1\5e4c2c0987d125bc63ac63f4e74ebf8d\jetified-android-pdf-viewer-3.1.0-beta.1\AndroidManifest.xml:2:1-11:12
MERGED from [com.github.barteksc:pdfium-android:1.9.0] C:\Users\murka\.gradle\caches\transforms-2\files-2.1\f6b7177f2f7c5a8cbebd12cbcb9acd58\jetified-pdfium-android-1.9.0\AndroidManifest.xml:2:1-11:12
MERGED from [androidx.legacy:legacy-support-v4:1.0.0] C:\Users\murka\.gradle\caches\transforms-2\files-2.1\2d1ee8b369a3512a36e6061d2ed872cf\legacy-support-v4-1.0.0\AndroidManifest.xml:17:1-22:12
MERGED from [androidx.fragment:fragment:1.1.0] C:\Users\murka\.gradle\caches\transforms-2\files-2.1\2fd9120a6da4df3dbabdd40f6a2d8995\fragment-1.1.0\AndroidManifest.xml:17:1-24:12
MERGED from [androidx.legacy:legacy-support-core-ui:1.0.0] C:\Users\murka\.gradle\caches\transforms-2\files-2.1\b69d809a7d56669e263a6dd73fa3f3e0\legacy-support-core-ui-1.0.0\AndroidManifest.xml:17:1-22:12
MERGED from [androidx.viewpager:viewpager:1.0.0] C:\Users\murka\.gradle\caches\transforms-2\files-2.1\eb26273f8f7192460456ce62b9bdf9ef\viewpager-1.0.0\AndroidManifest.xml:17:1-22:12
MERGED from [androidx.legacy:legacy-support-core-utils:1.0.0] C:\Users\murka\.gradle\caches\transforms-2\files-2.1\fead7ea2e43546ae73f7f9d07ac64f5f\legacy-support-core-utils-1.0.0\AndroidManifest.xml:17:1-22:12
MERGED from [androidx.loader:loader:1.0.0] C:\Users\murka\.gradle\caches\transforms-2\files-2.1\d9536c14ffde0b7289f12ba6def6bfa4\loader-1.0.0\AndroidManifest.xml:17:1-22:12
MERGED from [androidx.activity:activity:1.0.0] C:\Users\murka\.gradle\caches\transforms-2\files-2.1\68dbf8ea01a1dbd974fc87b5753550f0\jetified-activity-1.0.0\AndroidManifest.xml:17:1-24:12
MERGED from [androidx.coordinatorlayout:coordinatorlayout:1.0.0] C:\Users\murka\.gradle\caches\transforms-2\files-2.1\c55ef91c26d4308e6afaf93e553ef302\coordinatorlayout-1.0.0\AndroidManifest.xml:17:1-22:12
MERGED from [androidx.drawerlayout:drawerlayout:1.0.0] C:\Users\murka\.gradle\caches\transforms-2\files-2.1\a71638e40cbd9c9c6e5d2d7449ca53dd\drawerlayout-1.0.0\AndroidManifest.xml:17:1-22:12
MERGED from [androidx.slidingpanelayout:slidingpanelayout:1.0.0] C:\Users\murka\.gradle\caches\transforms-2\files-2.1\6e82373554eac6f416a47581a6cf4f62\slidingpanelayout-1.0.0\AndroidManifest.xml:17:1-22:12
MERGED from [androidx.customview:customview:1.0.0] C:\Users\murka\.gradle\caches\transforms-2\files-2.1\bc28a09d8d2212ffd5788fe6c1853326\customview-1.0.0\AndroidManifest.xml:17:1-22:12
MERGED from [androidx.media:media:1.0.0] C:\Users\murka\.gradle\caches\transforms-2\files-2.1\c6d01c8c444ebd60070e8fd3602db39e\media-1.0.0\AndroidManifest.xml:17:1-22:12
MERGED from [androidx.swiperefreshlayout:swiperefreshlayout:1.0.0] C:\Users\murka\.gradle\caches\transforms-2\files-2.1\bb361c9951ec30a475ef40f80e89b874\swiperefreshlayout-1.0.0\AndroidManifest.xml:17:1-22:12
MERGED from [androidx.asynclayoutinflater:asynclayoutinflater:1.0.0] C:\Users\murka\.gradle\caches\transforms-2\files-2.1\57910a85af155c3103487e39ce23f678\asynclayoutinflater-1.0.0\AndroidManifest.xml:17:1-22:12
MERGED from [androidx.core:core:1.3.1] C:\Users\murka\.gradle\caches\transforms-2\files-2.1\9d2ac2ae8a44d697ec01e22fb5b300b2\core-1.3.1\AndroidManifest.xml:17:1-26:12
MERGED from [androidx.lifecycle:lifecycle-runtime:2.2.0] C:\Users\murka\.gradle\caches\transforms-2\files-2.1\ca6b214160bd0909b103aa12202ef51c\lifecycle-runtime-2.2.0\AndroidManifest.xml:17:1-24:12
MERGED from [androidx.savedstate:savedstate:1.0.0] C:\Users\murka\.gradle\caches\transforms-2\files-2.1\2271d874344878e62b9a8e309af0c39d\jetified-savedstate-1.0.0\AndroidManifest.xml:17:1-24:12
MERGED from [androidx.lifecycle:lifecycle-livedata:2.0.0] C:\Users\murka\.gradle\caches\transforms-2\files-2.1\fb333fb43575d8a3b51161295454427f\lifecycle-livedata-2.0.0\AndroidManifest.xml:17:1-22:12
MERGED from [androidx.lifecycle:lifecycle-livedata-core:2.0.0] C:\Users\murka\.gradle\caches\transforms-2\files-2.1\cad25976877a6ae855ef6821534f58a1\lifecycle-livedata-core-2.0.0\AndroidManifest.xml:17:1-22:12
MERGED from [androidx.versionedparcelable:versionedparcelable:1.1.0] C:\Users\murka\.gradle\caches\transforms-2\files-2.1\96aee308bccd03bc62c306516c23a410\versionedparcelable-1.1.0\AndroidManifest.xml:17:1-27:12
MERGED from [androidx.arch.core:core-runtime:2.0.0] C:\Users\murka\.gradle\caches\transforms-2\files-2.1\5f606c30f064eed94124828de37fadc0\core-runtime-2.0.0\AndroidManifest.xml:17:1-22:12
MERGED from [androidx.lifecycle:lifecycle-viewmodel:2.1.0] C:\Users\murka\.gradle\caches\transforms-2\files-2.1\15792e6083b2b5b5a7ffa285d47daa24\lifecycle-viewmodel-2.1.0\AndroidManifest.xml:17:1-22:12
MERGED from [androidx.documentfile:documentfile:1.0.0] C:\Users\murka\.gradle\caches\transforms-2\files-2.1\15ddec56bd001fb2d4fc04a7d71346e8\documentfile-1.0.0\AndroidManifest.xml:17:1-22:12
MERGED from [androidx.localbroadcastmanager:localbroadcastmanager:1.0.0] C:\Users\murka\.gradle\caches\transforms-2\files-2.1\b6c34301107cd06a29fdce8c3ef58e3a\localbroadcastmanager-1.0.0\AndroidManifest.xml:17:1-22:12
MERGED from [androidx.print:print:1.0.0] C:\Users\murka\.gradle\caches\transforms-2\files-2.1\f15d67ff15ac844b69200ea1a0376a7a\print-1.0.0\AndroidManifest.xml:17:1-22:12
MERGED from [androidx.interpolator:interpolator:1.0.0] C:\Users\murka\.gradle\caches\transforms-2\files-2.1\b962778313a0e23f9ca3dbafc012c1af\interpolator-1.0.0\AndroidManifest.xml:17:1-22:12
MERGED from [androidx.cursoradapter:cursoradapter:1.0.0] C:\Users\murka\.gradle\caches\transforms-2\files-2.1\c39070be4a8b092ae5970162a829e305\cursoradapter-1.0.0\AndroidManifest.xml:17:1-22:12
INJECTED from C:\Users\murka\AndroidStudioProjects\virtual_signature_flutter\android\app\src\debug\AndroidManifest.xml:1:1-11:12
INJECTED from C:\Users\murka\AndroidStudioProjects\virtual_signature_flutter\android\app\src\debug\AndroidManifest.xml:1:1-11:12
INJECTED from C:\Users\murka\AndroidStudioProjects\virtual_signature_flutter\android\app\src\debug\AndroidManifest.xml:1:1-11:12
	package
		ADDED from C:\Users\murka\AndroidStudioProjects\virtual_signature_flutter\android\app\src\main\AndroidManifest.xml:2:5-52
		INJECTED from C:\Users\murka\AndroidStudioProjects\virtual_signature_flutter\android\app\src\main\AndroidManifest.xml
		INJECTED from C:\Users\murka\AndroidStudioProjects\virtual_signature_flutter\android\app\src\debug\AndroidManifest.xml
	android:versionName
		INJECTED from C:\Users\murka\AndroidStudioProjects\virtual_signature_flutter\android\app\src\main\AndroidManifest.xml
		ADDED from C:\Users\murka\AndroidStudioProjects\virtual_signature_flutter\android\app\src\main\AndroidManifest.xml:1:1-48:12
		INJECTED from C:\Users\murka\AndroidStudioProjects\virtual_signature_flutter\android\app\src\debug\AndroidManifest.xml
	android:versionCode
		INJECTED from C:\Users\murka\AndroidStudioProjects\virtual_signature_flutter\android\app\src\main\AndroidManifest.xml
		ADDED from C:\Users\murka\AndroidStudioProjects\virtual_signature_flutter\android\app\src\main\AndroidManifest.xml:1:1-48:12
		INJECTED from C:\Users\murka\AndroidStudioProjects\virtual_signature_flutter\android\app\src\debug\AndroidManifest.xml
	xmlns:android
		ADDED from C:\Users\murka\AndroidStudioProjects\virtual_signature_flutter\android\app\src\main\AndroidManifest.xml:1:11-69
uses-permission#android.permission.INTERNET
ADDED from C:\Users\murka\AndroidStudioProjects\virtual_signature_flutter\android\app\src\main\AndroidManifest.xml:3:5-66
MERGED from C:\Users\murka\AndroidStudioProjects\virtual_signature_flutter\android\app\src\main\AndroidManifest.xml:3:5-66
MERGED from C:\Users\murka\AndroidStudioProjects\virtual_signature_flutter\android\app\src\main\AndroidManifest.xml:3:5-66
	android:name
		ADDED from C:\Users\murka\AndroidStudioProjects\virtual_signature_flutter\android\app\src\main\AndroidManifest.xml:3:22-64
uses-permission#android.permission.WRITE_EXTERNAL_STORAGE
ADDED from C:\Users\murka\AndroidStudioProjects\virtual_signature_flutter\android\app\src\main\AndroidManifest.xml:4:5-80
MERGED from C:\Users\murka\AndroidStudioProjects\virtual_signature_flutter\android\app\src\main\AndroidManifest.xml:4:5-80
MERGED from C:\Users\murka\AndroidStudioProjects\virtual_signature_flutter\android\app\src\main\AndroidManifest.xml:4:5-80
	android:name
		ADDED from C:\Users\murka\AndroidStudioProjects\virtual_signature_flutter\android\app\src\main\AndroidManifest.xml:4:22-78
uses-permission#android.permission.READ_EXTERNAL_STORAGE
ADDED from C:\Users\murka\AndroidStudioProjects\virtual_signature_flutter\android\app\src\main\AndroidManifest.xml:5:5-79
MERGED from C:\Users\murka\AndroidStudioProjects\virtual_signature_flutter\android\app\src\main\AndroidManifest.xml:5:5-79
MERGED from C:\Users\murka\AndroidStudioProjects\virtual_signature_flutter\android\app\src\main\AndroidManifest.xml:5:5-79
MERGED from [:file_picker] C:\Users\murka\AndroidStudioProjects\virtual_signature_flutter\build\file_picker\intermediates\library_manifest\debug\AndroidManifest.xml:7:5-80
MERGED from [:file_picker] C:\Users\murka\AndroidStudioProjects\virtual_signature_flutter\build\file_picker\intermediates\library_manifest\debug\AndroidManifest.xml:7:5-80
	android:name
		ADDED from C:\Users\murka\AndroidStudioProjects\virtual_signature_flutter\android\app\src\main\AndroidManifest.xml:5:22-77
application
ADDED from C:\Users\murka\AndroidStudioProjects\virtual_signature_flutter\android\app\src\main\AndroidManifest.xml:6:5-47:19
MERGED from C:\Users\murka\AndroidStudioProjects\virtual_signature_flutter\android\app\src\main\AndroidManifest.xml:6:5-47:19
MERGED from C:\Users\murka\AndroidStudioProjects\virtual_signature_flutter\android\app\src\main\AndroidManifest.xml:6:5-47:19
MERGED from [:share] C:\Users\murka\AndroidStudioProjects\virtual_signature_flutter\build\share\intermediates\library_manifest\debug\AndroidManifest.xml:7:5-17:19
MERGED from [:share] C:\Users\murka\AndroidStudioProjects\virtual_signature_flutter\build\share\intermediates\library_manifest\debug\AndroidManifest.xml:7:5-17:19
MERGED from [androidx.core:core:1.3.1] C:\Users\murka\.gradle\caches\transforms-2\files-2.1\9d2ac2ae8a44d697ec01e22fb5b300b2\core-1.3.1\AndroidManifest.xml:24:5-89
MERGED from [androidx.core:core:1.3.1] C:\Users\murka\.gradle\caches\transforms-2\files-2.1\9d2ac2ae8a44d697ec01e22fb5b300b2\core-1.3.1\AndroidManifest.xml:24:5-89
MERGED from [androidx.versionedparcelable:versionedparcelable:1.1.0] C:\Users\murka\.gradle\caches\transforms-2\files-2.1\96aee308bccd03bc62c306516c23a410\versionedparcelable-1.1.0\AndroidManifest.xml:24:5-25:19
MERGED from [androidx.versionedparcelable:versionedparcelable:1.1.0] C:\Users\murka\.gradle\caches\transforms-2\files-2.1\96aee308bccd03bc62c306516c23a410\versionedparcelable-1.1.0\AndroidManifest.xml:24:5-25:19
	android:requestLegacyExternalStorage
		ADDED from C:\Users\murka\AndroidStudioProjects\virtual_signature_flutter\android\app\src\main\AndroidManifest.xml:9:9-52
	android:appComponentFactory
		ADDED from [androidx.core:core:1.3.1] C:\Users\murka\.gradle\caches\transforms-2\files-2.1\9d2ac2ae8a44d697ec01e22fb5b300b2\core-1.3.1\AndroidManifest.xml:24:18-86
	android:label
		ADDED from C:\Users\murka\AndroidStudioProjects\virtual_signature_flutter\android\app\src\main\AndroidManifest.xml:7:9-50
		ADDED from C:\Users\murka\AndroidStudioProjects\virtual_signature_flutter\android\app\src\main\AndroidManifest.xml:7:9-50
	android:icon
		ADDED from C:\Users\murka\AndroidStudioProjects\virtual_signature_flutter\android\app\src\main\AndroidManifest.xml:8:9-43
		ADDED from C:\Users\murka\AndroidStudioProjects\virtual_signature_flutter\android\app\src\main\AndroidManifest.xml:8:9-43
activity#com.example.virtual_signature_flutter.MainActivity
ADDED from C:\Users\murka\AndroidStudioProjects\virtual_signature_flutter\android\app\src\main\AndroidManifest.xml:12:9-41:20
	android:launchMode
		ADDED from C:\Users\murka\AndroidStudioProjects\virtual_signature_flutter\android\app\src\main\AndroidManifest.xml:14:13-43
	android:hardwareAccelerated
		ADDED from C:\Users\murka\AndroidStudioProjects\virtual_signature_flutter\android\app\src\main\AndroidManifest.xml:17:13-47
	android:windowSoftInputMode
		ADDED from C:\Users\murka\AndroidStudioProjects\virtual_signature_flutter\android\app\src\main\AndroidManifest.xml:18:13-55
	android:configChanges
		ADDED from C:\Users\murka\AndroidStudioProjects\virtual_signature_flutter\android\app\src\main\AndroidManifest.xml:16:13-163
	android:theme
		ADDED from C:\Users\murka\AndroidStudioProjects\virtual_signature_flutter\android\app\src\main\AndroidManifest.xml:15:13-47
	android:name
		ADDED from C:\Users\murka\AndroidStudioProjects\virtual_signature_flutter\android\app\src\main\AndroidManifest.xml:13:13-41
meta-data#io.flutter.embedding.android.NormalTheme
ADDED from C:\Users\murka\AndroidStudioProjects\virtual_signature_flutter\android\app\src\main\AndroidManifest.xml:24:13-27:17
	android:resource
		ADDED from C:\Users\murka\AndroidStudioProjects\virtual_signature_flutter\android\app\src\main\AndroidManifest.xml:26:15-52
	android:name
		ADDED from C:\Users\murka\AndroidStudioProjects\virtual_signature_flutter\android\app\src\main\AndroidManifest.xml:25:15-70
meta-data#io.flutter.embedding.android.SplashScreenDrawable
ADDED from C:\Users\murka\AndroidStudioProjects\virtual_signature_flutter\android\app\src\main\AndroidManifest.xml:33:13-36:17
	android:resource
		ADDED from C:\Users\murka\AndroidStudioProjects\virtual_signature_flutter\android\app\src\main\AndroidManifest.xml:35:15-61
	android:name
		ADDED from C:\Users\murka\AndroidStudioProjects\virtual_signature_flutter\android\app\src\main\AndroidManifest.xml:34:15-79
intent-filter#action:name:android.intent.action.MAIN+category:name:android.intent.category.LAUNCHER
ADDED from C:\Users\murka\AndroidStudioProjects\virtual_signature_flutter\android\app\src\main\AndroidManifest.xml:37:13-40:29
action#android.intent.action.MAIN
ADDED from C:\Users\murka\AndroidStudioProjects\virtual_signature_flutter\android\app\src\main\AndroidManifest.xml:38:17-68
	android:name
		ADDED from C:\Users\murka\AndroidStudioProjects\virtual_signature_flutter\android\app\src\main\AndroidManifest.xml:38:25-66
category#android.intent.category.LAUNCHER
ADDED from C:\Users\murka\AndroidStudioProjects\virtual_signature_flutter\android\app\src\main\AndroidManifest.xml:39:17-76
	android:name
		ADDED from C:\Users\murka\AndroidStudioProjects\virtual_signature_flutter\android\app\src\main\AndroidManifest.xml:39:27-74
meta-data#flutterEmbedding
ADDED from C:\Users\murka\AndroidStudioProjects\virtual_signature_flutter\android\app\src\main\AndroidManifest.xml:44:9-46:33
	android:value
		ADDED from C:\Users\murka\AndroidStudioProjects\virtual_signature_flutter\android\app\src\main\AndroidManifest.xml:46:13-30
	android:name
		ADDED from C:\Users\murka\AndroidStudioProjects\virtual_signature_flutter\android\app\src\main\AndroidManifest.xml:45:13-44
uses-sdk
INJECTED from C:\Users\murka\AndroidStudioProjects\virtual_signature_flutter\android\app\src\main\AndroidManifest.xml reason: use-sdk injection requested
INJECTED from C:\Users\murka\AndroidStudioProjects\virtual_signature_flutter\android\app\src\main\AndroidManifest.xml
INJECTED from C:\Users\murka\AndroidStudioProjects\virtual_signature_flutter\android\app\src\main\AndroidManifest.xml
MERGED from [:file_picker] C:\Users\murka\AndroidStudioProjects\virtual_signature_flutter\build\file_picker\intermediates\library_manifest\debug\AndroidManifest.xml:5:5-44
MERGED from [:file_picker] C:\Users\murka\AndroidStudioProjects\virtual_signature_flutter\build\file_picker\intermediates\library_manifest\debug\AndroidManifest.xml:5:5-44
MERGED from [:advance_pdf_viewer] C:\Users\murka\AndroidStudioProjects\virtual_signature_flutter\build\advance_pdf_viewer\intermediates\library_manifest\debug\AndroidManifest.xml:5:5-44
MERGED from [:advance_pdf_viewer] C:\Users\murka\AndroidStudioProjects\virtual_signature_flutter\build\advance_pdf_viewer\intermediates\library_manifest\debug\AndroidManifest.xml:5:5-44
MERGED from [:syncfusion_flutter_pdfviewer] C:\Users\murka\AndroidStudioProjects\virtual_signature_flutter\build\syncfusion_flutter_pdfviewer\intermediates\library_manifest\debug\AndroidManifest.xml:5:5-44
MERGED from [:syncfusion_flutter_pdfviewer] C:\Users\murka\AndroidStudioProjects\virtual_signature_flutter\build\syncfusion_flutter_pdfviewer\intermediates\library_manifest\debug\AndroidManifest.xml:5:5-44
MERGED from [:sqflite] C:\Users\murka\AndroidStudioProjects\virtual_signature_flutter\build\sqflite\intermediates\library_manifest\debug\AndroidManifest.xml:5:5-44
MERGED from [:sqflite] C:\Users\murka\AndroidStudioProjects\virtual_signature_flutter\build\sqflite\intermediates\library_manifest\debug\AndroidManifest.xml:5:5-44
MERGED from [:flutter_plugin_android_lifecycle] C:\Users\murka\AndroidStudioProjects\virtual_signature_flutter\build\flutter_plugin_android_lifecycle\intermediates\library_manifest\debug\AndroidManifest.xml:5:5-44
MERGED from [:flutter_plugin_android_lifecycle] C:\Users\murka\AndroidStudioProjects\virtual_signature_flutter\build\flutter_plugin_android_lifecycle\intermediates\library_manifest\debug\AndroidManifest.xml:5:5-44
MERGED from [:flutter_full_pdf_viewer] C:\Users\murka\AndroidStudioProjects\virtual_signature_flutter\build\flutter_full_pdf_viewer\intermediates\library_manifest\debug\AndroidManifest.xml:5:5-44
MERGED from [:flutter_full_pdf_viewer] C:\Users\murka\AndroidStudioProjects\virtual_signature_flutter\build\flutter_full_pdf_viewer\intermediates\library_manifest\debug\AndroidManifest.xml:5:5-44
MERGED from [:flutter_pdfview] C:\Users\murka\AndroidStudioProjects\virtual_signature_flutter\build\flutter_pdfview\intermediates\library_manifest\debug\AndroidManifest.xml:5:5-44
MERGED from [:flutter_pdfview] C:\Users\murka\AndroidStudioProjects\virtual_signature_flutter\build\flutter_pdfview\intermediates\library_manifest\debug\AndroidManifest.xml:5:5-44
MERGED from [:path_provider] C:\Users\murka\AndroidStudioProjects\virtual_signature_flutter\build\path_provider\intermediates\library_manifest\debug\AndroidManifest.xml:5:5-44
MERGED from [:path_provider] C:\Users\murka\AndroidStudioProjects\virtual_signature_flutter\build\path_provider\intermediates\library_manifest\debug\AndroidManifest.xml:5:5-44
MERGED from [:permission_handler] C:\Users\murka\AndroidStudioProjects\virtual_signature_flutter\build\permission_handler\intermediates\library_manifest\debug\AndroidManifest.xml:5:5-44
MERGED from [:permission_handler] C:\Users\murka\AndroidStudioProjects\virtual_signature_flutter\build\permission_handler\intermediates\library_manifest\debug\AndroidManifest.xml:5:5-44
MERGED from [:path_provider_ex] C:\Users\murka\AndroidStudioProjects\virtual_signature_flutter\build\path_provider_ex\intermediates\library_manifest\debug\AndroidManifest.xml:5:5-44
MERGED from [:path_provider_ex] C:\Users\murka\AndroidStudioProjects\virtual_signature_flutter\build\path_provider_ex\intermediates\library_manifest\debug\AndroidManifest.xml:5:5-44
MERGED from [:share] C:\Users\murka\AndroidStudioProjects\virtual_signature_flutter\build\share\intermediates\library_manifest\debug\AndroidManifest.xml:5:5-44
MERGED from [:share] C:\Users\murka\AndroidStudioProjects\virtual_signature_flutter\build\share\intermediates\library_manifest\debug\AndroidManifest.xml:5:5-44
MERGED from [com.github.barteksc:android-pdf-viewer:3.1.0-beta.1] C:\Users\murka\.gradle\caches\transforms-2\files-2.1\5e4c2c0987d125bc63ac63f4e74ebf8d\jetified-android-pdf-viewer-3.1.0-beta.1\AndroidManifest.xml:7:5-9:41
MERGED from [com.github.barteksc:android-pdf-viewer:3.1.0-beta.1] C:\Users\murka\.gradle\caches\transforms-2\files-2.1\5e4c2c0987d125bc63ac63f4e74ebf8d\jetified-android-pdf-viewer-3.1.0-beta.1\AndroidManifest.xml:7:5-9:41
MERGED from [com.github.barteksc:pdfium-android:1.9.0] C:\Users\murka\.gradle\caches\transforms-2\files-2.1\f6b7177f2f7c5a8cbebd12cbcb9acd58\jetified-pdfium-android-1.9.0\AndroidManifest.xml:7:5-9:41
MERGED from [com.github.barteksc:pdfium-android:1.9.0] C:\Users\murka\.gradle\caches\transforms-2\files-2.1\f6b7177f2f7c5a8cbebd12cbcb9acd58\jetified-pdfium-android-1.9.0\AndroidManifest.xml:7:5-9:41
MERGED from [androidx.legacy:legacy-support-v4:1.0.0] C:\Users\murka\.gradle\caches\transforms-2\files-2.1\2d1ee8b369a3512a36e6061d2ed872cf\legacy-support-v4-1.0.0\AndroidManifest.xml:20:5-44
MERGED from [androidx.legacy:legacy-support-v4:1.0.0] C:\Users\murka\.gradle\caches\transforms-2\files-2.1\2d1ee8b369a3512a36e6061d2ed872cf\legacy-support-v4-1.0.0\AndroidManifest.xml:20:5-44
MERGED from [androidx.fragment:fragment:1.1.0] C:\Users\murka\.gradle\caches\transforms-2\files-2.1\2fd9120a6da4df3dbabdd40f6a2d8995\fragment-1.1.0\AndroidManifest.xml:20:5-22:41
MERGED from [androidx.fragment:fragment:1.1.0] C:\Users\murka\.gradle\caches\transforms-2\files-2.1\2fd9120a6da4df3dbabdd40f6a2d8995\fragment-1.1.0\AndroidManifest.xml:20:5-22:41
MERGED from [androidx.legacy:legacy-support-core-ui:1.0.0] C:\Users\murka\.gradle\caches\transforms-2\files-2.1\b69d809a7d56669e263a6dd73fa3f3e0\legacy-support-core-ui-1.0.0\AndroidManifest.xml:20:5-44
MERGED from [androidx.legacy:legacy-support-core-ui:1.0.0] C:\Users\murka\.gradle\caches\transforms-2\files-2.1\b69d809a7d56669e263a6dd73fa3f3e0\legacy-support-core-ui-1.0.0\AndroidManifest.xml:20:5-44
MERGED from [androidx.viewpager:viewpager:1.0.0] C:\Users\murka\.gradle\caches\transforms-2\files-2.1\eb26273f8f7192460456ce62b9bdf9ef\viewpager-1.0.0\AndroidManifest.xml:20:5-44
MERGED from [androidx.viewpager:viewpager:1.0.0] C:\Users\murka\.gradle\caches\transforms-2\files-2.1\eb26273f8f7192460456ce62b9bdf9ef\viewpager-1.0.0\AndroidManifest.xml:20:5-44
MERGED from [androidx.legacy:legacy-support-core-utils:1.0.0] C:\Users\murka\.gradle\caches\transforms-2\files-2.1\fead7ea2e43546ae73f7f9d07ac64f5f\legacy-support-core-utils-1.0.0\AndroidManifest.xml:20:5-44
MERGED from [androidx.legacy:legacy-support-core-utils:1.0.0] C:\Users\murka\.gradle\caches\transforms-2\files-2.1\fead7ea2e43546ae73f7f9d07ac64f5f\legacy-support-core-utils-1.0.0\AndroidManifest.xml:20:5-44
MERGED from [androidx.loader:loader:1.0.0] C:\Users\murka\.gradle\caches\transforms-2\files-2.1\d9536c14ffde0b7289f12ba6def6bfa4\loader-1.0.0\AndroidManifest.xml:20:5-44
MERGED from [androidx.loader:loader:1.0.0] C:\Users\murka\.gradle\caches\transforms-2\files-2.1\d9536c14ffde0b7289f12ba6def6bfa4\loader-1.0.0\AndroidManifest.xml:20:5-44
MERGED from [androidx.activity:activity:1.0.0] C:\Users\murka\.gradle\caches\transforms-2\files-2.1\68dbf8ea01a1dbd974fc87b5753550f0\jetified-activity-1.0.0\AndroidManifest.xml:20:5-22:41
MERGED from [androidx.activity:activity:1.0.0] C:\Users\murka\.gradle\caches\transforms-2\files-2.1\68dbf8ea01a1dbd974fc87b5753550f0\jetified-activity-1.0.0\AndroidManifest.xml:20:5-22:41
MERGED from [androidx.coordinatorlayout:coordinatorlayout:1.0.0] C:\Users\murka\.gradle\caches\transforms-2\files-2.1\c55ef91c26d4308e6afaf93e553ef302\coordinatorlayout-1.0.0\AndroidManifest.xml:20:5-44
MERGED from [androidx.coordinatorlayout:coordinatorlayout:1.0.0] C:\Users\murka\.gradle\caches\transforms-2\files-2.1\c55ef91c26d4308e6afaf93e553ef302\coordinatorlayout-1.0.0\AndroidManifest.xml:20:5-44
MERGED from [androidx.drawerlayout:drawerlayout:1.0.0] C:\Users\murka\.gradle\caches\transforms-2\files-2.1\a71638e40cbd9c9c6e5d2d7449ca53dd\drawerlayout-1.0.0\AndroidManifest.xml:20:5-44
MERGED from [androidx.drawerlayout:drawerlayout:1.0.0] C:\Users\murka\.gradle\caches\transforms-2\files-2.1\a71638e40cbd9c9c6e5d2d7449ca53dd\drawerlayout-1.0.0\AndroidManifest.xml:20:5-44
MERGED from [androidx.slidingpanelayout:slidingpanelayout:1.0.0] C:\Users\murka\.gradle\caches\transforms-2\files-2.1\6e82373554eac6f416a47581a6cf4f62\slidingpanelayout-1.0.0\AndroidManifest.xml:20:5-44
MERGED from [androidx.slidingpanelayout:slidingpanelayout:1.0.0] C:\Users\murka\.gradle\caches\transforms-2\files-2.1\6e82373554eac6f416a47581a6cf4f62\slidingpanelayout-1.0.0\AndroidManifest.xml:20:5-44
MERGED from [androidx.customview:customview:1.0.0] C:\Users\murka\.gradle\caches\transforms-2\files-2.1\bc28a09d8d2212ffd5788fe6c1853326\customview-1.0.0\AndroidManifest.xml:20:5-44
MERGED from [androidx.customview:customview:1.0.0] C:\Users\murka\.gradle\caches\transforms-2\files-2.1\bc28a09d8d2212ffd5788fe6c1853326\customview-1.0.0\AndroidManifest.xml:20:5-44
MERGED from [androidx.media:media:1.0.0] C:\Users\murka\.gradle\caches\transforms-2\files-2.1\c6d01c8c444ebd60070e8fd3602db39e\media-1.0.0\AndroidManifest.xml:20:5-44
MERGED from [androidx.media:media:1.0.0] C:\Users\murka\.gradle\caches\transforms-2\files-2.1\c6d01c8c444ebd60070e8fd3602db39e\media-1.0.0\AndroidManifest.xml:20:5-44
MERGED from [androidx.swiperefreshlayout:swiperefreshlayout:1.0.0] C:\Users\murka\.gradle\caches\transforms-2\files-2.1\bb361c9951ec30a475ef40f80e89b874\swiperefreshlayout-1.0.0\AndroidManifest.xml:20:5-44
MERGED from [androidx.swiperefreshlayout:swiperefreshlayout:1.0.0] C:\Users\murka\.gradle\caches\transforms-2\files-2.1\bb361c9951ec30a475ef40f80e89b874\swiperefreshlayout-1.0.0\AndroidManifest.xml:20:5-44
MERGED from [androidx.asynclayoutinflater:asynclayoutinflater:1.0.0] C:\Users\murka\.gradle\caches\transforms-2\files-2.1\57910a85af155c3103487e39ce23f678\asynclayoutinflater-1.0.0\AndroidManifest.xml:20:5-44
MERGED from [androidx.asynclayoutinflater:asynclayoutinflater:1.0.0] C:\Users\murka\.gradle\caches\transforms-2\files-2.1\57910a85af155c3103487e39ce23f678\asynclayoutinflater-1.0.0\AndroidManifest.xml:20:5-44
MERGED from [androidx.core:core:1.3.1] C:\Users\murka\.gradle\caches\transforms-2\files-2.1\9d2ac2ae8a44d697ec01e22fb5b300b2\core-1.3.1\AndroidManifest.xml:20:5-22:41
MERGED from [androidx.core:core:1.3.1] C:\Users\murka\.gradle\caches\transforms-2\files-2.1\9d2ac2ae8a44d697ec01e22fb5b300b2\core-1.3.1\AndroidManifest.xml:20:5-22:41
MERGED from [androidx.lifecycle:lifecycle-runtime:2.2.0] C:\Users\murka\.gradle\caches\transforms-2\files-2.1\ca6b214160bd0909b103aa12202ef51c\lifecycle-runtime-2.2.0\AndroidManifest.xml:20:5-22:41
MERGED from [androidx.lifecycle:lifecycle-runtime:2.2.0] C:\Users\murka\.gradle\caches\transforms-2\files-2.1\ca6b214160bd0909b103aa12202ef51c\lifecycle-runtime-2.2.0\AndroidManifest.xml:20:5-22:41
MERGED from [androidx.savedstate:savedstate:1.0.0] C:\Users\murka\.gradle\caches\transforms-2\files-2.1\2271d874344878e62b9a8e309af0c39d\jetified-savedstate-1.0.0\AndroidManifest.xml:20:5-22:41
MERGED from [androidx.savedstate:savedstate:1.0.0] C:\Users\murka\.gradle\caches\transforms-2\files-2.1\2271d874344878e62b9a8e309af0c39d\jetified-savedstate-1.0.0\AndroidManifest.xml:20:5-22:41
MERGED from [androidx.lifecycle:lifecycle-livedata:2.0.0] C:\Users\murka\.gradle\caches\transforms-2\files-2.1\fb333fb43575d8a3b51161295454427f\lifecycle-livedata-2.0.0\AndroidManifest.xml:20:5-44
MERGED from [androidx.lifecycle:lifecycle-livedata:2.0.0] C:\Users\murka\.gradle\caches\transforms-2\files-2.1\fb333fb43575d8a3b51161295454427f\lifecycle-livedata-2.0.0\AndroidManifest.xml:20:5-44
MERGED from [androidx.lifecycle:lifecycle-livedata-core:2.0.0] C:\Users\murka\.gradle\caches\transforms-2\files-2.1\cad25976877a6ae855ef6821534f58a1\lifecycle-livedata-core-2.0.0\AndroidManifest.xml:20:5-44
MERGED from [androidx.lifecycle:lifecycle-livedata-core:2.0.0] C:\Users\murka\.gradle\caches\transforms-2\files-2.1\cad25976877a6ae855ef6821534f58a1\lifecycle-livedata-core-2.0.0\AndroidManifest.xml:20:5-44
MERGED from [androidx.versionedparcelable:versionedparcelable:1.1.0] C:\Users\murka\.gradle\caches\transforms-2\files-2.1\96aee308bccd03bc62c306516c23a410\versionedparcelable-1.1.0\AndroidManifest.xml:20:5-22:41
MERGED from [androidx.versionedparcelable:versionedparcelable:1.1.0] C:\Users\murka\.gradle\caches\transforms-2\files-2.1\96aee308bccd03bc62c306516c23a410\versionedparcelable-1.1.0\AndroidManifest.xml:20:5-22:41
MERGED from [androidx.arch.core:core-runtime:2.0.0] C:\Users\murka\.gradle\caches\transforms-2\files-2.1\5f606c30f064eed94124828de37fadc0\core-runtime-2.0.0\AndroidManifest.xml:20:5-44
MERGED from [androidx.arch.core:core-runtime:2.0.0] C:\Users\murka\.gradle\caches\transforms-2\files-2.1\5f606c30f064eed94124828de37fadc0\core-runtime-2.0.0\AndroidManifest.xml:20:5-44
MERGED from [androidx.lifecycle:lifecycle-viewmodel:2.1.0] C:\Users\murka\.gradle\caches\transforms-2\files-2.1\15792e6083b2b5b5a7ffa285d47daa24\lifecycle-viewmodel-2.1.0\AndroidManifest.xml:20:5-44
MERGED from [androidx.lifecycle:lifecycle-viewmodel:2.1.0] C:\Users\murka\.gradle\caches\transforms-2\files-2.1\15792e6083b2b5b5a7ffa285d47daa24\lifecycle-viewmodel-2.1.0\AndroidManifest.xml:20:5-44
MERGED from [androidx.documentfile:documentfile:1.0.0] C:\Users\murka\.gradle\caches\transforms-2\files-2.1\15ddec56bd001fb2d4fc04a7d71346e8\documentfile-1.0.0\AndroidManifest.xml:20:5-44
MERGED from [androidx.documentfile:documentfile:1.0.0] C:\Users\murka\.gradle\caches\transforms-2\files-2.1\15ddec56bd001fb2d4fc04a7d71346e8\documentfile-1.0.0\AndroidManifest.xml:20:5-44
MERGED from [androidx.localbroadcastmanager:localbroadcastmanager:1.0.0] C:\Users\murka\.gradle\caches\transforms-2\files-2.1\b6c34301107cd06a29fdce8c3ef58e3a\localbroadcastmanager-1.0.0\AndroidManifest.xml:20:5-44
MERGED from [androidx.localbroadcastmanager:localbroadcastmanager:1.0.0] C:\Users\murka\.gradle\caches\transforms-2\files-2.1\b6c34301107cd06a29fdce8c3ef58e3a\localbroadcastmanager-1.0.0\AndroidManifest.xml:20:5-44
MERGED from [androidx.print:print:1.0.0] C:\Users\murka\.gradle\caches\transforms-2\files-2.1\f15d67ff15ac844b69200ea1a0376a7a\print-1.0.0\AndroidManifest.xml:20:5-44
MERGED from [androidx.print:print:1.0.0] C:\Users\murka\.gradle\caches\transforms-2\files-2.1\f15d67ff15ac844b69200ea1a0376a7a\print-1.0.0\AndroidManifest.xml:20:5-44
MERGED from [androidx.interpolator:interpolator:1.0.0] C:\Users\murka\.gradle\caches\transforms-2\files-2.1\b962778313a0e23f9ca3dbafc012c1af\interpolator-1.0.0\AndroidManifest.xml:20:5-44
MERGED from [androidx.interpolator:interpolator:1.0.0] C:\Users\murka\.gradle\caches\transforms-2\files-2.1\b962778313a0e23f9ca3dbafc012c1af\interpolator-1.0.0\AndroidManifest.xml:20:5-44
MERGED from [androidx.cursoradapter:cursoradapter:1.0.0] C:\Users\murka\.gradle\caches\transforms-2\files-2.1\c39070be4a8b092ae5970162a829e305\cursoradapter-1.0.0\AndroidManifest.xml:20:5-44
MERGED from [androidx.cursoradapter:cursoradapter:1.0.0] C:\Users\murka\.gradle\caches\transforms-2\files-2.1\c39070be4a8b092ae5970162a829e305\cursoradapter-1.0.0\AndroidManifest.xml:20:5-44
INJECTED from C:\Users\murka\AndroidStudioProjects\virtual_signature_flutter\android\app\src\debug\AndroidManifest.xml
INJECTED from C:\Users\murka\AndroidStudioProjects\virtual_signature_flutter\android\app\src\debug\AndroidManifest.xml
	android:targetSdkVersion
		INJECTED from C:\Users\murka\AndroidStudioProjects\virtual_signature_flutter\android\app\src\main\AndroidManifest.xml
		INJECTED from C:\Users\murka\AndroidStudioProjects\virtual_signature_flutter\android\app\src\debug\AndroidManifest.xml
	android:minSdkVersion
		INJECTED from C:\Users\murka\AndroidStudioProjects\virtual_signature_flutter\android\app\src\main\AndroidManifest.xml
		INJECTED from C:\Users\murka\AndroidStudioProjects\virtual_signature_flutter\android\app\src\debug\AndroidManifest.xml
queries
ADDED from [:file_picker] C:\Users\murka\AndroidStudioProjects\virtual_signature_flutter\build\file_picker\intermediates\library_manifest\debug\AndroidManifest.xml:9:5-15:15
intent#action:name:android.intent.action.GET_CONTENT+data:mimeType:*/*
ADDED from [:file_picker] C:\Users\murka\AndroidStudioProjects\virtual_signature_flutter\build\file_picker\intermediates\library_manifest\debug\AndroidManifest.xml:10:9-14:18
action#android.intent.action.GET_CONTENT
ADDED from [:file_picker] C:\Users\murka\AndroidStudioProjects\virtual_signature_flutter\build\file_picker\intermediates\library_manifest\debug\AndroidManifest.xml:11:13-72
	android:name
		ADDED from [:file_picker] C:\Users\murka\AndroidStudioProjects\virtual_signature_flutter\build\file_picker\intermediates\library_manifest\debug\AndroidManifest.xml:11:21-69
data
ADDED from [:file_picker] C:\Users\murka\AndroidStudioProjects\virtual_signature_flutter\build\file_picker\intermediates\library_manifest\debug\AndroidManifest.xml:13:13-44
	android:mimeType
		ADDED from [:file_picker] C:\Users\murka\AndroidStudioProjects\virtual_signature_flutter\build\file_picker\intermediates\library_manifest\debug\AndroidManifest.xml:13:19-41
provider#io.flutter.plugins.share.ShareFileProvider
ADDED from [:share] C:\Users\murka\AndroidStudioProjects\virtual_signature_flutter\build\share\intermediates\library_manifest\debug\AndroidManifest.xml:8:9-16:20
	android:grantUriPermissions
		ADDED from [:share] C:\Users\murka\AndroidStudioProjects\virtual_signature_flutter\build\share\intermediates\library_manifest\debug\AndroidManifest.xml:12:13-47
	android:authorities
		ADDED from [:share] C:\Users\murka\AndroidStudioProjects\virtual_signature_flutter\build\share\intermediates\library_manifest\debug\AndroidManifest.xml:10:13-74
	android:exported
		ADDED from [:share] C:\Users\murka\AndroidStudioProjects\virtual_signature_flutter\build\share\intermediates\library_manifest\debug\AndroidManifest.xml:11:13-37
	android:name
		ADDED from [:share] C:\Users\murka\AndroidStudioProjects\virtual_signature_flutter\build\share\intermediates\library_manifest\debug\AndroidManifest.xml:9:13-70
meta-data#android.support.FILE_PROVIDER_PATHS
ADDED from [:share] C:\Users\murka\AndroidStudioProjects\virtual_signature_flutter\build\share\intermediates\library_manifest\debug\AndroidManifest.xml:13:13-15:68
	android:resource
		ADDED from [:share] C:\Users\murka\AndroidStudioProjects\virtual_signature_flutter\build\share\intermediates\library_manifest\debug\AndroidManifest.xml:15:17-65
	android:name
		ADDED from [:share] C:\Users\murka\AndroidStudioProjects\virtual_signature_flutter\build\share\intermediates\library_manifest\debug\AndroidManifest.xml:14:17-67
